{
  "logoAnnotations": [
    {
      "description": "Ice Cream Facebook",
      "score": 0.3395094,
      "boundingPoly": {
        "vertices": [
          {
            "x": 905,
            "y": 110
          },
          {
            "x": 1041,
            "y": 110
          },
          {
            "x": 1041,
            "y": 199
          },
          {
            "x": 905,
            "y": 199
          }
        ]
      }
    },
    {
      "mid": "/m/058p1b",
      "description": "TED",
      "score": 0.1690091,
      "boundingPoly": {
        "vertices": [
          {
            "x": 374,
            "y": 339
          },
          {
            "x": 523,
            "y": 339
          },
          {
            "x": 523,
            "y": 418
          },
          {
            "x": 374,
            "y": 418
          }
        ]
      }
    }
  ],
  "labelAnnotations": [
    {
      "mid": "/m/07s6nbt",
      "description": "text",
      "score": 0.97118545,
      "topicality": 0.97118545
    },
    {
      "mid": "/m/03gq5hm",
      "description": "font",
      "score": 0.9259207,
      "topicality": 0.9259207
    },
    {
      "mid": "/m/01g6gs",
      "description": "black and white",
      "score": 0.778637,
      "topicality": 0.778637
    },
    {
      "mid": "/m/03scnj",
      "description": "line",
      "score": 0.77657306,
      "topicality": 0.77657306
    },
    {
      "mid": "/m/0n0j",
      "description": "area",
      "score": 0.6720096,
      "topicality": 0.6720096
    },
    {
      "mid": "/m/01jwgf",
      "description": "product",
      "score": 0.6377864,
      "topicality": 0.6377864
    },
    {
      "mid": "/m/0mwc",
      "description": "angle",
      "score": 0.6070937,
      "topicality": 0.6070937
    },
    {
      "mid": "/m/05fwb",
      "description": "number",
      "score": 0.59619355,
      "topicality": 0.59619355
    },
    {
      "mid": "/m/01cd9",
      "description": "brand",
      "score": 0.5461708,
      "topicality": 0.5461708
    },
    {
      "mid": "/m/0j62f",
      "description": "rectangle",
      "score": 0.5001053,
      "topicality": 0.5001053
    }
  ],
  "textAnnotations": [
    {
      "locale": "en",
      "description": "The quick\nbrown fox jumps\nover the lazy\ndog.\n",
      "boundingPoly": {
        "vertices": [
          {
            "x": 134,
            "y": 67
          },
          {
            "x": 1278,
            "y": 67
          },
          {
            "x": 1278,
            "y": 905
          },
          {
            "x": 134,
            "y": 905
          }
        ]
      }
    },
    {
      "description": "The",
      "boundingPoly": {
        "vertices": [
          {
            "x": 395,
            "y": 67
          },
          {
            "x": 647,
            "y": 67
          },
          {
            "x": 647,
            "y": 243
          },
          {
            "x": 395,
            "y": 243
          }
        ]
      }
    },
    {
      "description": "quick",
      "boundingPoly": {
        "vertices": [
          {
            "x": 691,
            "y": 67
          },
          {
            "x": 1041,
            "y": 67
          },
          {
            "x": 1041,
            "y": 243
          },
          {
            "x": 691,
            "y": 243
          }
        ]
      }
    },
    {
      "description": "brown",
      "boundingPoly": {
        "vertices": [
          {
            "x": 134,
            "y": 280
          },
          {
            "x": 561,
            "y": 280
          },
          {
            "x": 561,
            "y": 471
          },
          {
            "x": 134,
            "y": 471
          }
        ]
      }
    },
    {
      "description": "fox",
      "boundingPoly": {
        "vertices": [
          {
            "x": 623,
            "y": 280
          },
          {
            "x": 815,
            "y": 280
          },
          {
            "x": 815,
            "y": 471
          },
          {
            "x": 623,
            "y": 471
          }
        ]
      }
    },
    {
      "description": "jumps",
      "boundingPoly": {
        "vertices": [
          {
            "x": 882,
            "y": 280
          },
          {
            "x": 1278,
            "y": 280
          },
          {
            "x": 1278,
            "y": 471
          },
          {
            "x": 882,
            "y": 471
          }
        ]
      }
    },
    {
      "description": "over",
      "boundingPoly": {
        "vertices": [
          {
            "x": 271,
            "y": 499
          },
          {
            "x": 563,
            "y": 499
          },
          {
            "x": 563,
            "y": 692
          },
          {
            "x": 271,
            "y": 692
          }
        ]
      }
    },
    {
      "description": "the",
      "boundingPoly": {
        "vertices": [
          {
            "x": 638,
            "y": 499
          },
          {
            "x": 831,
            "y": 499
          },
          {
            "x": 831,
            "y": 692
          },
          {
            "x": 638,
            "y": 692
          }
        ]
      }
    },
    {
      "description": "lazy",
      "boundingPoly": {
        "vertices": [
          {
            "x": 883,
            "y": 499
          },
          {
            "x": 1155,
            "y": 499
          },
          {
            "x": 1155,
            "y": 692
          },
          {
            "x": 883,
            "y": 692
          }
        ]
      }
    },
    {
      "description": "dog",
      "boundingPoly": {
        "vertices": [
          {
            "x": 554,
            "y": 733
          },
          {
            "x": 817,
            "y": 733
          },
          {
            "x": 817,
            "y": 905
          },
          {
            "x": 554,
            "y": 905
          }
        ]
      }
    },
    {
      "description": ".",
      "boundingPoly": {
        "vertices": [
          {
            "x": 825,
            "y": 733
          },
          {
            "x": 875,
            "y": 733
          },
          {
            "x": 875,
            "y": 905
          },
          {
            "x": 825,
            "y": 905
          }
        ]
      }
    }
  ],
  "safeSearchAnnotation": {
    "adult": "VERY_UNLIKELY",
    "spoof": "UNLIKELY",
    "medical": "VERY_UNLIKELY",
    "violence": "VERY_UNLIKELY",
    "racy": "VERY_UNLIKELY"
  },
  "imagePropertiesAnnotation": {
    "dominantColors": {
      "colors": [
        {
          "color": {
            "red": 250,
            "green": 250,
            "blue": 250
          },
          "score": 0.46020827,
          "pixelFraction": 0.89484274
        },
        {
          "color": {
            "red": 8,
            "green": 8,
            "blue": 8
          },
          "score": 0.25669152,
          "pixelFraction": 0.046981134
        },
        {
          "color": {
            "red": 117,
            "green": 117,
            "blue": 117
          },
          "score": 0.05910434,
          "pixelFraction": 0.011509434
        },
        {
          "color": {
            "red": 50,
            "green": 50,
            "blue": 50
          },
          "score": 0.07834301,
          "pixelFraction": 0.012075472
        },
        {
          "color": {
            "red": 193,
            "green": 193,
            "blue": 193
          },
          "score": 0.05812801,
          "pixelFraction": 0.015534591
        },
        {
          "color": {
            "red": 85,
            "green": 85,
            "blue": 85
          },
          "score": 0.04450721,
          "pixelFraction": 0.0073584905
        },
        {
          "color": {
            "red": 155,
            "green": 155,
            "blue": 155
          },
          "score": 0.043017667,
          "pixelFraction": 0.011698113
        }
      ]
    }
  },
  "cropHintsAnnotation": {
    "cropHints": [
      {
        "boundingPoly": {
          "vertices": [
            {
              "x": 273
            },
            {
              "x": 1055
            },
            {
              "x": 1055,
              "y": 973
            },
            {
              "x": 273,
              "y": 973
            }
          ]
        },
        "confidence": 0.79999995,
        "importanceFraction": 0.82
      },
      {
        "boundingPoly": {
          "vertices": [
            {
              "x": 191
            },
            {
              "x": 1178
            },
            {
              "x": 1178,
              "y": 973
            },
            {
              "x": 191,
              "y": 973
            }
          ]
        },
        "confidence": 0.79999995,
        "importanceFraction": 0.93
      },
      {
        "boundingPoly": {
          "vertices": [
            {
              "x": 108
            },
            {
              "x": 1274
            },
            {
              "x": 1274,
              "y": 973
            },
            {
              "x": 108,
              "y": 973
            }
          ]
        },
        "confidence": 0.79999995,
        "importanceFraction": 1
      }
    ]
  },
  "fullTextAnnotation": {
    "pages": [
      {
        "property": {
          "detectedLanguages": [
            {
              "languageCode": "en",
              "confidence": 0.89
            }
          ]
        },
        "width": 1372,
        "height": 974,
        "blocks": [
          {
            "boundingBox": {
              "vertices": [
                {
                  "x": 134,
                  "y": 67
                },
                {
                  "x": 1278,
                  "y": 67
                },
                {
                  "x": 1278,
                  "y": 905
                },
                {
                  "x": 134,
                  "y": 905
                }
              ]
            },
            "paragraphs": [
              {
                "boundingBox": {
                  "vertices": [
                    {
                      "x": 134,
                      "y": 67
                    },
                    {
                      "x": 1278,
                      "y": 67
                    },
                    {
                      "x": 1278,
                      "y": 692
                    },
                    {
                      "x": 134,
                      "y": 692
                    }
                  ]
                },
                "words": [
                  {
                    "property": {
                      "detectedLanguages": [
                        {
                          "languageCode": "en"
                        }
                      ]
                    },
                    "boundingBox": {
                      "vertices": [
                        {
                          "x": 395,
                          "y": 67
                        },
                        {
                          "x": 647,
                          "y": 67
                        },
                        {
                          "x": 647,
                          "y": 243
                        },
                        {
                          "x": 395,
                          "y": 243
                        }
                      ]
                    },
                    "symbols": [
                      {
                        "property": {
                          "detectedLanguages": [
                            {
                              "languageCode": "en"
                            }
                          ]
                        },
                        "boundingBox": {
                          "vertices": [
                            {
                              "x": 395,
                              "y": 67
                            },
                            {
                              "x": 454,
                              "y": 67
                            },
                            {
                              "x": 454,
                              "y": 243
                            },
                            {
                              "x": 395,
                              "y": 243
                            }
                          ]
                        },
                        "text": "T",
                        "confidence": 0.99
                      },
                      {
                        "property": {
                          "detectedLanguages": [
                            {
                              "languageCode": "en"
                            }
                          ]
                        },
                        "boundingBox": {
                          "vertices": [
                            {
                              "x": 459,
                              "y": 67
                            },
                            {
                              "x": 533,
                              "y": 67
                            },
                            {
                              "x": 533,
                              "y": 243
                            },
                            {
                              "x": 459,
                              "y": 243
                            }
                          ]
                        },
                        "text": "h",
                        "confidence": 0.99
                      },
                      {
                        "property": {
                          "detectedLanguages": [
                            {
                              "languageCode": "en"
                            }
                          ],
                          "detectedBreak": {
                            "type": "SPACE"
                          }
                        },
                        "boundingBox": {
                          "vertices": [
                            {
                              "x": 559,
                              "y": 67
                            },
                            {
                              "x": 647,
                              "y": 67
                            },
                            {
                              "x": 647,
                              "y": 243
                            },
                            {
                              "x": 559,
                              "y": 243
                            }
                          ]
                        },
                        "text": "e",
                        "confidence": 1
                      }
                    ],
                    "confidence": 0.99
                  },
                  {
                    "property": {
                      "detectedLanguages": [
                        {
                          "languageCode": "en"
                        }
                      ]
                    },
                    "boundingBox": {
                      "vertices": [
                        {
                          "x": 691,
                          "y": 67
                        },
                        {
                          "x": 1041,
                          "y": 67
                        },
                        {
                          "x": 1041,
                          "y": 243
                        },
                        {
                          "x": 691,
                          "y": 243
                        }
                      ]
                    },
                    "symbols": [
                      {
                        "property": {
                          "detectedLanguages": [
                            {
                              "languageCode": "en"
                            }
                          ]
                        },
                        "boundingBox": {
                          "vertices": [
                            {
                              "x": 691,
                              "y": 67
                            },
                            {
                              "x": 765,
                              "y": 67
                            },
                            {
                              "x": 765,
                              "y": 243
                            },
                            {
                              "x": 691,
                              "y": 243
                            }
                          ]
                        },
                        "text": "q",
                        "confidence": 0.99
                      },
                      {
                        "property": {
                          "detectedLanguages": [
                            {
                              "languageCode": "en"
                            }
                          ]
                        },
                        "boundingBox": {
                          "vertices": [
                            {
                              "x": 784,
                              "y": 67
                            },
                            {
                              "x": 850,
                              "y": 67
                            },
                            {
                              "x": 850,
                              "y": 243
                            },
                            {
                              "x": 784,
                              "y": 243
                            }
                          ]
                        },
                        "text": "u",
                        "confidence": 1
                      },
                      {
                        "property": {
                          "detectedLanguages": [
                            {
                              "languageCode": "en"
                            }
                          ]
                        },
                        "boundingBox": {
                          "vertices": [
                            {
                              "x": 862,
                              "y": 67
                            },
                            {
                              "x": 914,
                              "y": 67
                            },
                            {
                              "x": 914,
                              "y": 243
                            },
                            {
                              "x": 862,
                              "y": 243
                            }
                          ]
                        },
                        "text": "i",
                        "confidence": 1
                      },
                      {
                        "property": {
                          "detectedLanguages": [
                            {
                              "languageCode": "en"
                            }
                          ]
                        },
                        "boundingBox": {
                          "vertices": [
                            {
                              "x": 915,
                              "y": 67
                            },
                            {
                              "x": 967,
                              "y": 67
                            },
                            {
                              "x": 967,
                              "y": 243
                            },
                            {
                              "x": 915,
                              "y": 243
                            }
                          ]
                        },
                        "text": "c",
                        "confidence": 1
                      },
                      {
                        "property": {
                          "detectedLanguages": [
                            {
                              "languageCode": "en"
                            }
                          ],
                          "detectedBreak": {
                            "type": "EOL_SURE_SPACE"
                          }
                        },
                        "boundingBox": {
                          "vertices": [
                            {
                              "x": 982,
                              "y": 67
                            },
                            {
                              "x": 1041,
                              "y": 67
                            },
                            {
                              "x": 1041,
                              "y": 243
                            },
                            {
                              "x": 982,
                              "y": 243
                            }
                          ]
                        },
                        "text": "k",
                        "confidence": 0.99
                      }
                    ],
                    "confidence": 0.99
                  },
                  {
                    "property": {
                      "detectedLanguages": [
                        {
                          "languageCode": "en"
                        }
                      ]
                    },
                    "boundingBox": {
                      "vertices": [
                        {
                          "x": 134,
                          "y": 280
                        },
                        {
                          "x": 561,
                          "y": 280
                        },
                        {
                          "x": 561,
                          "y": 471
                        },
                        {
                          "x": 134,
                          "y": 471
                        }
                      ]
                    },
                    "symbols": [
                      {
                        "property": {
                          "detectedLanguages": [
                            {
                              "languageCode": "en"
                            }
                          ]
                        },
                        "boundingBox": {
                          "vertices": [
                            {
                              "x": 134,
                              "y": 280
                            },
                            {
                              "x": 198,
                              "y": 280
                            },
                            {
                              "x": 198,
                              "y": 471
                            },
                            {
                              "x": 134,
                              "y": 471
                            }
                          ]
                        },
                        "text": "b",
                        "confidence": 0.99
                      },
                      {
                        "property": {
                          "detectedLanguages": [
                            {
                              "languageCode": "en"
                            }
                          ]
                        },
                        "boundingBox": {
                          "vertices": [
                            {
                              "x": 214,
                              "y": 280
                            },
                            {
                              "x": 271,
                              "y": 280
                            },
                            {
                              "x": 271,
                              "y": 471
                            },
                            {
                              "x": 214,
                              "y": 471
                            }
                          ]
                        },
                        "text": "r",
                        "confidence": 1
                      },
                      {
                        "property": {
                          "detectedLanguages": [
                            {
                              "languageCode": "en"
                            }
                          ]
                        },
                        "boundingBox": {
                          "vertices": [
                            {
                              "x": 269,
                              "y": 280
                            },
                            {
                              "x": 333,
                              "y": 280
                            },
                            {
                              "x": 333,
                              "y": 471
                            },
                            {
                              "x": 269,
                              "y": 471
                            }
                          ]
                        },
                        "text": "o",
                        "confidence": 0.99
                      },
                      {
                        "property": {
                          "detectedLanguages": [
                            {
                              "languageCode": "en"
                            }
                          ]
                        },
                        "boundingBox": {
                          "vertices": [
                            {
                              "x": 353,
                              "y": 280
                            },
                            {
                              "x": 441,
                              "y": 280
                            },
                            {
                              "x": 441,
                              "y": 471
                            },
                            {
                              "x": 353,
                              "y": 471
                            }
                          ]
                        },
                        "text": "w",
                        "confidence": 0.99
                      },
                      {
                        "property": {
                          "detectedLanguages": [
                            {
                              "languageCode": "en"
                            }
                          ],
                          "detectedBreak": {
                            "type": "SPACE"
                          }
                        },
                        "boundingBox": {
                          "vertices": [
                            {
                              "x": 465,
                              "y": 280
                            },
                            {
                              "x": 561,
                              "y": 280
                            },
                            {
                              "x": 561,
                              "y": 471
                            },
                            {
                              "x": 465,
                              "y": 471
                            }
                          ]
                        },
                        "text": "n",
                        "confidence": 0.99
                      }
                    ],
                    "confidence": 0.99
                  },
                  {
                    "property": {
                      "detectedLanguages": [
                        {
                          "languageCode": "en"
                        }
                      ]
                    },
                    "boundingBox": {
                      "vertices": [
                        {
                          "x": 623,
                          "y": 280
                        },
                        {
                          "x": 815,
                          "y": 280
                        },
                        {
                          "x": 815,
                          "y": 471
                        },
                        {
                          "x": 623,
                          "y": 471
                        }
                      ]
                    },
                    "symbols": [
                      {
                        "property": {
                          "detectedLanguages": [
                            {
                              "languageCode": "en"
                            }
                          ]
                        },
                        "boundingBox": {
                          "vertices": [
                            {
                              "x": 623,
                              "y": 280
                            },
                            {
                              "x": 672,
                              "y": 280
                            },
                            {
                              "x": 672,
                              "y": 471
                            },
                            {
                              "x": 623,
                              "y": 471
                            }
                          ]
                        },
                        "text": "f",
                        "confidence": 0.96
                      },
                      {
                        "property": {
                          "detectedLanguages": [
                            {
                              "languageCode": "en"
                            }
                          ]
                        },
                        "boundingBox": {
                          "vertices": [
                            {
                              "x": 677,
                              "y": 280
                            },
                            {
                              "x": 734,
                              "y": 280
                            },
                            {
                              "x": 734,
                              "y": 471
                            },
                            {
                              "x": 677,
                              "y": 471
                            }
                          ]
                        },
                        "text": "o",
                        "confidence": 0.99
                      },
                      {
                        "property": {
                          "detectedLanguages": [
                            {
                              "languageCode": "en"
                            }
                          ],
                          "detectedBreak": {
                            "type": "SPACE"
                          }
                        },
                        "boundingBox": {
                          "vertices": [
                            {
                              "x": 751,
                              "y": 280
                            },
                            {
                              "x": 815,
                              "y": 280
                            },
                            {
                              "x": 815,
                              "y": 471
                            },
                            {
                              "x": 751,
                              "y": 471
                            }
                          ]
                        },
                        "text": "x",
                        "confidence": 0.99
                      }
                    ],
                    "confidence": 0.98
                  },
                  {
                    "property": {
                      "detectedLanguages": [
                        {
                          "languageCode": "en"
                        }
                      ]
                    },
                    "boundingBox": {
                      "vertices": [
                        {
                          "x": 882,
                          "y": 280
                        },
                        {
                          "x": 1278,
                          "y": 280
                        },
                        {
                          "x": 1278,
                          "y": 471
                        },
                        {
                          "x": 882,
                          "y": 471
                        }
                      ]
                    },
                    "symbols": [
                      {
                        "property": {
                          "detectedLanguages": [
                            {
                              "languageCode": "en"
                            }
                          ]
                        },
                        "boundingBox": {
                          "vertices": [
                            {
                              "x": 882,
                              "y": 280
                            },
                            {
                              "x": 915,
                              "y": 280
                            },
                            {
                              "x": 915,
                              "y": 471
                            },
                            {
                              "x": 882,
                              "y": 471
                            }
                          ]
                        },
                        "text": "j",
                        "confidence": 0.99
                      },
                      {
                        "property": {
                          "detectedLanguages": [
                            {
                              "languageCode": "en"
                            }
                          ]
                        },
                        "boundingBox": {
                          "vertices": [
                            {
                              "x": 908,
                              "y": 280
                            },
                            {
                              "x": 965,
                              "y": 280
                            },
                            {
                              "x": 965,
                              "y": 471
                            },
                            {
                              "x": 908,
                              "y": 471
                            }
                          ]
                        },
                        "text": "u",
                        "confidence": 0.99
                      },
                      {
                        "property": {
                          "detectedLanguages": [
                            {
                              "languageCode": "en"
                            }
                          ]
                        },
                        "boundingBox": {
                          "vertices": [
                            {
                              "x": 986,
                              "y": 280
                            },
                            {
                              "x": 1082,
                              "y": 280
                            },
                            {
                              "x": 1082,
                              "y": 471
                            },
                            {
                              "x": 986,
                              "y": 471
                            }
                          ]
                        },
                        "text": "m",
                        "confidence": 1
                      },
                      {
                        "property": {
                          "detectedLanguages": [
                            {
                              "languageCode": "en"
                            }
                          ]
                        },
                        "boundingBox": {
                          "vertices": [
                            {
                              "x": 1125,
                              "y": 280
                            },
                            {
                              "x": 1213,
                              "y": 280
                            },
                            {
                              "x": 1213,
                              "y": 471
                            },
                            {
                              "x": 1125,
                              "y": 471
                            }
                          ]
                        },
                        "text": "p",
                        "confidence": 1
                      },
                      {
                        "property": {
                          "detectedLanguages": [
                            {
                              "languageCode": "en"
                            }
                          ],
                          "detectedBreak": {
                            "type": "EOL_SURE_SPACE"
                          }
                        },
                        "boundingBox": {
                          "vertices": [
                            {
                              "x": 1214,
                              "y": 280
                            },
                            {
                              "x": 1278,
                              "y": 280
                            },
                            {
                              "x": 1278,
                              "y": 471
                            },
                            {
                              "x": 1214,
                              "y": 471
                            }
                          ]
                        },
                        "text": "s",
                        "confidence": 0.99
                      }
                    ],
                    "confidence": 0.99
                  },
                  {
                    "property": {
                      "detectedLanguages": [
                        {
                          "languageCode": "en"
                        }
                      ]
                    },
                    "boundingBox": {
                      "vertices": [
                        {
                          "x": 271,
                          "y": 499
                        },
                        {
                          "x": 563,
                          "y": 499
                        },
                        {
                          "x": 563,
                          "y": 692
                        },
                        {
                          "x": 271,
                          "y": 692
                        }
                      ]
                    },
                    "symbols": [
                      {
                        "property": {
                          "detectedLanguages": [
                            {
                              "languageCode": "en"
                            }
                          ]
                        },
                        "boundingBox": {
                          "vertices": [
                            {
                              "x": 271,
                              "y": 499
                            },
                            {
                              "x": 336,
                              "y": 499
                            },
                            {
                              "x": 336,
                              "y": 692
                            },
                            {
                              "x": 271,
                              "y": 692
                            }
                          ]
                        },
                        "text": "o",
                        "confidence": 0.99
                      },
                      {
                        "property": {
                          "detectedLanguages": [
                            {
                              "languageCode": "en"
                            }
                          ]
                        },
                        "boundingBox": {
                          "vertices": [
                            {
                              "x": 345,
                              "y": 499
                            },
                            {
                              "x": 418,
                              "y": 499
                            },
                            {
                              "x": 418,
                              "y": 692
                            },
                            {
                              "x": 345,
                              "y": 692
                            }
                          ]
                        },
                        "text": "v",
                        "confidence": 0.99
                      },
                      {
                        "property": {
                          "detectedLanguages": [
                            {
                              "languageCode": "en"
                            }
                          ]
                        },
                        "boundingBox": {
                          "vertices": [
                            {
                              "x": 446,
                              "y": 499
                            },
                            {
                              "x": 511,
                              "y": 499
                            },
                            {
                              "x": 511,
                              "y": 692
                            },
                            {
                              "x": 446,
                              "y": 692
                            }
                          ]
                        },
                        "text": "e",
                        "confidence": 1
                      },
                      {
                        "property": {
                          "detectedLanguages": [
                            {
                              "languageCode": "en"
                            }
                          ],
                          "detectedBreak": {
                            "type": "SPACE"
                          }
                        },
                        "boundingBox": {
                          "vertices": [
                            {
                              "x": 513,
                              "y": 499
                            },
                            {
                              "x": 563,
                              "y": 499
                            },
                            {
                              "x": 563,
                              "y": 692
                            },
                            {
                              "x": 513,
                              "y": 692
                            }
                          ]
                        },
                        "text": "r",
                        "confidence": 1
                      }
                    ],
                    "confidence": 0.99
                  },
                  {
                    "property": {
                      "detectedLanguages": [
                        {
                          "languageCode": "en"
                        }
                      ]
                    },
                    "boundingBox": {
                      "vertices": [
                        {
                          "x": 638,
                          "y": 499
                        },
                        {
                          "x": 831,
                          "y": 499
                        },
                        {
                          "x": 831,
                          "y": 692
                        },
                        {
                          "x": 638,
                          "y": 692
                        }
                      ]
                    },
                    "symbols": [
                      {
                        "property": {
                          "detectedLanguages": [
                            {
                              "languageCode": "en"
                            }
                          ]
                        },
                        "boundingBox": {
                          "vertices": [
                            {
                              "x": 638,
                              "y": 499
                            },
                            {
                              "x": 672,
                              "y": 499
                            },
                            {
                              "x": 672,
                              "y": 692
                            },
                            {
                              "x": 638,
                              "y": 692
                            }
                          ]
                        },
                        "text": "t",
                        "confidence": 0.99
                      },
                      {
                        "property": {
                          "detectedLanguages": [
                            {
                              "languageCode": "en"
                            }
                          ]
                        },
                        "boundingBox": {
                          "vertices": [
                            {
                              "x": 665,
                              "y": 499
                            },
                            {
                              "x": 722,
                              "y": 499
                            },
                            {
                              "x": 722,
                              "y": 692
                            },
                            {
                              "x": 665,
                              "y": 692
                            }
                          ]
                        },
                        "text": "h",
                        "confidence": 1
                      },
                      {
                        "property": {
                          "detectedLanguages": [
                            {
                              "languageCode": "en"
                            }
                          ],
                          "detectedBreak": {
                            "type": "SPACE"
                          }
                        },
                        "boundingBox": {
                          "vertices": [
                            {
                              "x": 751,
                              "y": 499
                            },
                            {
                              "x": 831,
                              "y": 499
                            },
                            {
                              "x": 831,
                              "y": 692
                            },
                            {
                              "x": 751,
                              "y": 692
                            }
                          ]
                        },
                        "text": "e",
                        "confidence": 1
                      }
                    ],
                    "confidence": 0.99
                  },
                  {
                    "property": {
                      "detectedLanguages": [
                        {
                          "languageCode": "en"
                        }
                      ]
                    },
                    "boundingBox": {
                      "vertices": [
                        {
                          "x": 883,
                          "y": 499
                        },
                        {
                          "x": 1155,
                          "y": 499
                        },
                        {
                          "x": 1155,
                          "y": 692
                        },
                        {
                          "x": 883,
                          "y": 692
                        }
                      ]
                    },
                    "symbols": [
                      {
                        "property": {
                          "detectedLanguages": [
                            {
                              "languageCode": "en"
                            }
                          ]
                        },
                        "boundingBox": {
                          "vertices": [
                            {
                              "x": 883,
                              "y": 499
                            },
                            {
                              "x": 933,
                              "y": 499
                            },
                            {
                              "x": 933,
                              "y": 692
                            },
                            {
                              "x": 883,
                              "y": 692
                            }
                          ]
                        },
                        "text": "l",
                        "confidence": 0.99
                      },
                      {
                        "property": {
                          "detectedLanguages": [
                            {
                              "languageCode": "en"
                            }
                          ]
                        },
                        "boundingBox": {
                          "vertices": [
                            {
                              "x": 938,
                              "y": 499
                            },
                            {
                              "x": 996,
                              "y": 499
                            },
                            {
                              "x": 996,
                              "y": 692
                            },
                            {
                              "x": 938,
                              "y": 692
                            }
                          ]
                        },
                        "text": "a",
                        "confidence": 1
                      },
                      {
                        "property": {
                          "detectedLanguages": [
                            {
                              "languageCode": "en"
                            }
                          ]
                        },
                        "boundingBox": {
                          "vertices": [
                            {
                              "x": 1012,
                              "y": 499
                            },
                            {
                              "x": 1077,
                              "y": 499
                            },
                            {
                              "x": 1077,
                              "y": 692
                            },
                            {
                              "x": 1012,
                              "y": 692
                            }
                          ]
                        },
                        "text": "z",
                        "confidence": 0.99
                      },
                      {
                        "property": {
                          "detectedLanguages": [
                            {
                              "languageCode": "en"
                            }
                          ],
                          "detectedBreak": {
                            "type": "LINE_BREAK"
                          }
                        },
                        "boundingBox": {
                          "vertices": [
                            {
                              "x": 1090,
                              "y": 499
                            },
                            {
                              "x": 1155,
                              "y": 499
                            },
                            {
                              "x": 1155,
                              "y": 692
                            },
                            {
                              "x": 1090,
                              "y": 692
                            }
                          ]
                        },
                        "text": "y",
                        "confidence": 0.99
                      }
                    ],
                    "confidence": 0.99
                  }
                ],
                "confidence": 0.99
              },
              {
                "boundingBox": {
                  "vertices": [
                    {
                      "x": 554,
                      "y": 733
                    },
                    {
                      "x": 875,
                      "y": 733
                    },
                    {
                      "x": 875,
                      "y": 905
                    },
                    {
                      "x": 554,
                      "y": 905
                    }
                  ]
                },
                "words": [
                  {
                    "boundingBox": {
                      "vertices": [
                        {
                          "x": 554,
                          "y": 733
                        },
                        {
                          "x": 817,
                          "y": 733
                        },
                        {
                          "x": 817,
                          "y": 905
                        },
                        {
                          "x": 554,
                          "y": 905
                        }
                      ]
                    },
                    "symbols": [
                      {
                        "boundingBox": {
                          "vertices": [
                            {
                              "x": 554,
                              "y": 733
                            },
                            {
                              "x": 626,
                              "y": 733
                            },
                            {
                              "x": 626,
                              "y": 905
                            },
                            {
                              "x": 554,
                              "y": 905
                            }
                          ]
                        },
                        "text": "d",
                        "confidence": 0.99
                      },
                      {
                        "boundingBox": {
                          "vertices": [
                            {
                              "x": 641,
                              "y": 733
                            },
                            {
                              "x": 730,
                              "y": 733
                            },
                            {
                              "x": 730,
                              "y": 905
                            },
                            {
                              "x": 641,
                              "y": 905
                            }
                          ]
                        },
                        "text": "o",
                        "confidence": 0.97
                      },
                      {
                        "boundingBox": {
                          "vertices": [
                            {
                              "x": 745,
                              "y": 733
                            },
                            {
                              "x": 817,
                              "y": 733
                            },
                            {
                              "x": 817,
                              "y": 905
                            },
                            {
                              "x": 745,
                              "y": 905
                            }
                          ]
                        },
                        "text": "g",
                        "confidence": 0.99
                      }
                    ],
                    "confidence": 0.98
                  },
                  {
                    "boundingBox": {
                      "vertices": [
                        {
                          "x": 825,
                          "y": 733
                        },
                        {
                          "x": 875,
                          "y": 733
                        },
                        {
                          "x": 875,
                          "y": 905
                        },
                        {
                          "x": 825,
                          "y": 905
                        }
                      ]
                    },
                    "symbols": [
                      {
                        "property": {
                          "detectedBreak": {
                            "type": "LINE_BREAK"
                          }
                        },
                        "boundingBox": {
                          "vertices": [
                            {
                              "x": 825,
                              "y": 733
                            },
                            {
                              "x": 875,
                              "y": 733
                            },
                            {
                              "x": 875,
                              "y": 905
                            },
                            {
                              "x": 825,
                              "y": 905
                            }
                          ]
                        },
                        "text": ".",
                        "confidence": 0.97
                      }
                    ],
                    "confidence": 0.97
                  }
                ],
                "confidence": 0.98
              }
            ],
            "blockType": "TEXT",
            "confidence": 0.99
          }
        ]
      }
    ],
    "text": "The quick\nbrown fox jumps\nover the lazy\ndog.\n"
  },
  "webDetection": {
    "webEntities": [
      {
        "entityId": "/m/03gq5hm",
        "score": 0.91411895,
        "description": "Font"
      },
      {
        "entityId": "/m/082rzl",
        "score": 0.8886,
        "description": "Copperplate Gothic"
      },
      {
        "entityId": "/m/07s6nbt",
        "score": 0.7926887,
        "description": "Text"
      },
      {
        "entityId": "/m/0h58n",
        "score": 0.7117,
        "description": "Typeface"
      },
      {
        "entityId": "/m/07p4g",
        "score": 0.7018,
        "description": "Typography"
      },
      {
        "entityId": "/m/0h57f",
        "score": 0.6773,
        "description": "Sans-serif"
      },
      {
        "entityId": "/m/0h57w",
        "score": 0.6526,
        "description": "Serif"
      },
      {
        "entityId": "/m/0d2zs",
        "score": 0.5943,
        "description": "Optical character recognition"
      },
      {
        "entityId": "/m/03qwmk",
        "score": 0.4909,
        "description": "The quick brown fox jumps over the lazy dog"
      },
      {
        "entityId": "/m/03x8x8",
        "score": 0.4696,
        "description": "Point"
      },
      {
        "entityId": "/m/0gc80",
        "score": 0.4425,
        "description": "Engraving"
      },
      {
        "entityId": "/m/0dwx7",
        "score": 0.343,
        "description": "Logo"
      },
      {
        "entityId": "/m/0rzqx1t",
        "score": 0.329
      },
      {
        "entityId": "/m/0jqnp",
        "score": 0.3003,
        "description": "Character"
      },
      {
        "entityId": "/m/0jg24",
        "score": 0.297,
        "description": "Image"
      }
    ],
    "fullMatchingImages": [
      {
        "url": "https://hips.hearstapps.com/esquireuk.cdnds.net/15/37/original/original-engravers-gothic-font-feature-43-jpg-ad582feb.jpg"
      },
      {
        "url": "https://codelabs.developers.google.com/codelabs/mobile-vision-ocr/img/ca01e9a550a9d1e0.png"
      },
      {
        "url": "https://image-store.slidesharecdn.com/d7feeb5c-bcd6-4c4b-be07-93a0eef4c483-original.jpeg"
      },
      {
        "url": "https://i.ytimg.com/vi/MpT66l3wK5Y/maxresdefault.jpg"
      },
      {
        "url": "https://i.ytimg.com/vi/6iq9ps9uPYE/maxresdefault.jpg"
      },
      {
        "url": "https://static1.squarespace.com/static/545910aee4b045b2d2081832/5460cb3ae4b068e8b9f40cea/5460cc9de4b054a6f867a1c7/1415629982592/Engravers-gothic-font-feature-43.jpg"
      },
      {
        "url": "https://slideplayer.org/slide/1277267/3/images/15/Verkindlichung+ist+das+grosse+Ungesagte+der+F%C3%BChrung..jpg"
      },
      {
        "url": "https://scontent-atl3-1.cdninstagram.com/vp/22712eb74e076939b0dd8238d4d8e92c/5C221C93/t51.2885-15/e35/32406997_195811757708102_464486312037056512_n.jpg"
      },
      {
        "url": "https://images.slideplayer.com/26/8871629/slides/slide_1.jpg"
      },
      {
        "url": "https://images.slideplayer.com/15/4602196/slides/slide_7.jpg"
      },
      {
        "url": "https://slideplayer.com/slide/1710087/7/images/59/Methane+gas+is+heated+with+an+excess+of+chlorine+gas.jpg"
      },
      {
        "url": "https://images.slideplayer.com/1/276238/slides/slide_98.jpg"
      },
      {
        "url": "https://slideplayer.es/slide/1814626/9/images/23/Translate%3A+I+wouldn%E2%80%99t+do+that+if+I+were+you..jpg"
      },
      {
        "url": "https://images.eyeglasses.com/product/xlarge/autoflex-44-natural.jpg"
      },
      {
        "url": "http://franksgourmetgrille.com/wp-content/uploads/2018/04/quotes-about-being-silent-and-hurting-amazing-images-15-quotes-by-jane-austen-you-should-know-of-quotes-about-being-silent-and-hurting.png"
      },
      {
        "url": "http://golfelmcrestcc.com/wp-content/uploads/2018/04/quotes-from-fangirl-with-page-numbers-fantastic-images-15-quotes-by-jane-austen-you-should-know-of-quotes-from-fangirl-with-page-numbers.png"
      },
      {
        "url": "http://freearticlelive.com/wp-content/uploads/2018/06/new-unsure-quotes-15-quotes-by-jane-austen-you-should-know.png"
      },
      {
        "url": "https://pbs.twimg.com/media/DJJFg_yXgAAavfh.jpg"
      },
      {
        "url": "https://cdn.slidesharecdn.com/ss_thumbnails/20080724-how-to-do-a-perfect-process-documentation-project-1217037404711817-9-thumbnail-4.jpg?cb=1217011865"
      },
      {
        "url": "https://scontent-lht6-1.cdninstagram.com/vp/5e08694f7dc933634d378e9431d1a5cd/5C612445/t51.2885-15/e35/36712401_207817603396982_2598085335791435776_n.jpg?ig_cache_key=MTgyNzE2MDE4NDM3NjU1NTMxNA%3D%3D.2"
      },
      {
        "url": "https://lookaside.fbsbx.com/lookaside/crawler/media/?media_id=1257303591079472"
      },
      {
        "url": "https://image.slidesharecdn.com/20080724-how-to-do-a-perfect-process-documentation-project-1217037404711817-9/95/how-to-do-a-perfect-process-documentation-project-1-728.jpg?cb=1217011865"
      },
      {
        "url": "https://image.slidesharecdn.com/08sierrakickassusers-1209858870426788-9/95/kathy-sierra-kicking-ass-14-728.jpg?cb=1209833681"
      },
      {
        "url": "https://4.bp.blogspot.com/-41U6bf6D3-U/W4edffntHHI/AAAAAAAAPnU/hJZ4bstQ_pksfV9GkPvD77qFMXGlIxN0ACLcBGAs/w1200-h630-p-k-no-nu/%25D0%2591%25D0%25B5%25D0%25B7-%25D0%25B8%25D0%25BC%25D0%25B5%25D0%25BD%25D0%25B8-6.jpg"
      },
      {
        "url": "https://lookaside.fbsbx.com/lookaside/crawler/media/?media_id=1706017646193998"
      },
      {
        "url": "https://image.slidesharecdn.com/kanban-130914112326-phpapp01/95/-45-638.jpg?cb=1380737276"
      },
      {
        "url": "https://image.slidesharecdn.com/chapter7respirationautosaved-140530095455-phpapp01/95/chapter-7-respiration-24-638.jpg?cb=1401443911"
      },
      {
        "url": "https://image.slidesharecdn.com/greekexercises-150528025244-lva1-app6891/95/greek-exercises-25-638.jpg?cb=1432782275"
      },
      {
        "url": "http://simplethoughts.nl/wp-content/uploads/2016/02/simple-thoughts-wat-een-geluk-dat-ik-jullie-ken-600x467.jpg"
      },
      {
        "url": "https://i.pinimg.com/originals/7f/f6/90/7ff69036311533437089e5dd9d481f50.jpg"
      },
      {
        "url": "https://t3.ftcdn.net/jpg/01/67/40/42/500_F_167404265_wB48RZO13QfII9bkDZOZAcXfcqIkrzhe.jpg"
      },
      {
        "url": "https://cdn.dopl3r.com/memes_files/seria-tan-genial-poder-estar-con-la-persona-que-te-gusta-WG9jl.jpg"
      },
      {
        "url": "https://ichef.bbci.co.uk/news/660/cpsprodpb/8393/production/_88538633_harryquote2.png"
      },
      {
        "url": "http://www.itusozluk.com/image/instela-yazarlarindan-ozlu-sozler_689268.jpg"
      },
      {
        "url": "https://scontent-lax3-1.cdninstagram.com/vp/451fcb68c37646521d18b7ef27732b6c/5C59F03B/t51.2885-15/e35/c74.0.601.601/s480x480/41555099_279083836048054_7308641483128488943_n.jpg"
      },
      {
        "url": "https://scontent-sea1-1.cdninstagram.com/vp/3c18b037c002aac9339c258bdb159586/5C41EAEA/t51.2885-15/e35/s480x480/40023489_670071080013608_1417815117946180849_n.jpg"
      },
      {
        "url": "https://scontent-ort2-1.cdninstagram.com/vp/e77601a5499abd2de5393955bfac334d/5C4E2B44/t51.2885-15/e35/s480x480/11313594_1619022118349158_1109061639_n.jpg"
      },
      {
        "url": "https://hips.hearstapps.com/esquireuk.cdnds.net/15/37/2048x2730/2048x2730-engravers-gothic-font-feature-43-jpg-ad582feb.jpg?resize=480:*"
      },
      {
        "url": "http://3.bp.blogspot.com/-XbKN-1v6YIw/Vgl3-PfMa0I/AAAAAAAALQk/ihnPuC63q7o/s1600/ada%2Byayinlari%2B9.sinif%2Bdil%2Bve%2Banlatim%2Bkitabi%2Bcevaplari%2B2015-2016.PNG"
      },
      {
        "url": "https://image.slidesharecdn.com/3leggedthingtravisaluminumtraveltripodwithairhedneoballhead-180122120400/95/3-legged-thing-travis-aluminum-travel-tripod-with-air-head-neo-ball-head-1-638.jpg?cb=1516623045"
      },
      {
        "url": "https://cdnimg.fonts.net/ImagingService.ashx?imagetype=typeit&amp;shopid=1178979&amp;width=738&amp;RenderText=The+quick+brown+fox+jumps+over+the+lazy+dog.+The+quick+brown+fox+jumps+over+the+lazy+dog.&amp;TextSize=32&amp;TextColor=%23000000&amp;BgColor=%23ffffff"
      },
      {
        "url": "https://pbs.twimg.com/media/DPVyR9xWkAA2-7U.jpg"
      },
      {
        "url": "https://cdn.dopl3r.com/memes_files/como-no-te-voy-a-querer-si-dices-puras-pendejadas-igual-que-yo-e2Nit.jpg"
      },
      {
        "url": "https://s8.favim.com/orig/72/alone-funny-life-lonely-Favim.com-713787.jpg"
      },
      {
        "url": "https://hvr.me/wp-content/uploads/2018/06/580118_630846580265418_1136314279_n.jpg"
      },
      {
        "url": "https://i.ytimg.com/vi/pG27PDQLqYM/hqdefault.jpg"
      },
      {
        "url": "https://pics.onsizzle.com/does-anyone-else-get-road-rage-walking-behind-slow-people-26351355.png"
      },
      {
        "url": "https://pics.onsizzle.com/does-anyone-else-get-road-rage-walking-behind-slow-people-27115224.png"
      },
      {
        "url": "https://slideplayer.com/26/8871629/big_thumb.jpg"
      },
      {
        "url": "https://slideplayer.com/25/8022943/big_thumb.jpg"
      }
    ],
    "visuallySimilarImages": [
      {
        "url": "http://www.cool-quotes.org/wp-content/uploads/2018/08/filipino-love-quotes-in-english-free-4.jpg"
      },
      {
        "url": "http://cdn.ination.pro/quotes/quotes-twitter-tagalog/positive-quotes-tagalog-twi-on-tagalog-love-quotes.jpg"
      },
      {
        "url": "http://inspiringspace.info/img/quotes-about-crush-tagalog-jokes.png"
      },
      {
        "url": "https://pinimg.icu/ipi/0x0/2267f/best-tagalog-patama-quotes-and-sad-quotes-tagalog-please-share-E2c4dfefaac8fda34009cb4fa7f3d1912.jpg"
      },
      {
        "url": "https://i.pinimg.com/236x/69/18/b5/6918b50725dca676c1ce64cce17f2469--tagalog-quotes-sad-love-quotes.jpg"
      },
      {
        "url": "https://i.pinimg.com/originals/44/e9/2d/44e92d27dd6ae58c55f99a23159c8832.png"
      },
      {
        "url": "http://media.quoteprism.net/img/851/3/470567-picture1.png"
      },
      {
        "url": "http://blackdia.net/wp-content/uploads/2018/09/funny-nonsense-quotes-tagalog-best-of-funny-filipino-quotes-in-tagalog-tops-quotes-about-joke-tagalog-of-funny-nonsense-quotes-tagalog.jpg"
      },
      {
        "url": "https://i.pinimg.com/236x/cb/86/16/cb8616dfc6f39ac392fea490b6b8b947--pinoy-quotes-tagalog-love-quotes.jpg"
      },
      {
        "url": "https://data.whicdn.com/images/135011403/large.jpg"
      },
      {
        "url": "https://pics.me.me/seenzoned-wag-kang-umasa-wala-si-yang-balak-replyan-kai-1490113.png"
      },
      {
        "url": "http://mstaray.com/wp-content/uploads/2014/10/formatmsbolera.jpg"
      },
      {
        "url": "http://www.cool-quotes.org/wp-content/uploads/2018/08/filipino-love-quotes-in-english-printable.jpg"
      },
      {
        "url": "http://malungkot.com/wp-content/uploads/2014/06/Hindi-pala.fw_.png"
      },
      {
        "url": "http://newdietplans.info/library/b/broken-hearted-quotes-tagalog-patama/broken-hearted-quotes-tagalog-patama-03.jpg"
      },
      {
        "url": "https://www.goodmorningquote.com/wp-content/uploads/2015/03/tagalog-funny-love-quote.jpg"
      },
      {
        "url": "http://mrbolero.com/wp-content/uploads/2014/04/di-pa-rin-sapat.fw_.png"
      },
      {
        "url": "http://www.hippoquotes.com/img/broken-hearted-quotes-tagalog-patama/1476628_479801818804627_378765442_n.jpg"
      }
    ],
    "bestGuessLabels": [
      {
        "label": "filipino quotes",
        "languageCode": " invalid_language_code"
      }
    ]
  }
}